 ____                                  _     
|  _ \ _ __ ___  _ __   ___  ___  __ _| |___ 
| |_) | '__/ _ \| '_ \ / _ \/ __|/ _` | / __|
|  __/| | | (_) | |_) | (_) \__ \ (_| | \__ \
|_|   |_|  \___/| .__/ \___/|___/\__,_|_|___/
                |_|                          
